%YAML 1.1
%TAG !u! tag:unity3d.com,2011:
--- !u!114 &11400000
MonoBehaviour:
  m_ObjectHideFlags: 0
  m_CorrespondingSourceObject: {fileID: 0}
  m_PrefabInstance: {fileID: 0}
  m_PrefabAsset: {fileID: 0}
  m_GameObject: {fileID: 0}
  m_Enabled: 1
  m_EditorHideFlags: 0
  m_Script: {fileID: 11500000, guid: 5ebe681616d99f94caa4688729445def, type: 3}
  m_Name: estoc
  m_EditorClassIdentifier: 
  animationClip: {fileID: -203655887218126122, guid: 93e28f65a2af73648b72da9af881eb92, type: 3}
  startAtk: 0.7
  endAtk: 0.9
