%YAML 1.1
%TAG !u! tag:unity3d.com,2011:
--- !u!29 &1
OcclusionCullingSettings:
  m_ObjectHideFlags: 0
  serializedVersion: 2
  m_OcclusionBakeSettings:
    smallestOccluder: 5
    smallestHole: 0.25
    backfaceThreshold: 100
  m_SceneGUID: 00000000000000000000000000000000
  m_OcclusionCullingData: {fileID: 0}
--- !u!104 &2
RenderSettings:
  m_ObjectHideFlags: 0
  serializedVersion: 9
  m_Fog: 0
  m_FogColor: {r: 0.5, g: 0.5, b: 0.5, a: 1}
  m_FogMode: 3
  m_FogDensity: 0.01
  m_LinearFogStart: 0
  m_LinearFogEnd: 300
  m_AmbientSkyColor: {r: 0.212, g: 0.227, b: 0.259, a: 1}
  m_AmbientEquatorColor: {r: 0.114, g: 0.125, b: 0.133, a: 1}
  m_AmbientGroundColor: {r: 0.047, g: 0.043, b: 0.035, a: 1}
  m_AmbientIntensity: 1
  m_AmbientMode: 0
  m_SubtractiveShadowColor: {r: 0.42, g: 0.478, b: 0.627, a: 1}
  m_SkyboxMaterial: {fileID: 10304, guid: 0000000000000000f000000000000000, type: 0}
  m_HaloStrength: 0.5
  m_FlareStrength: 1
  m_FlareFadeSpeed: 3
  m_HaloTexture: {fileID: 0}
  m_SpotCookie: {fileID: 10001, guid: 0000000000000000e000000000000000, type: 0}
  m_DefaultReflectionMode: 0
  m_DefaultReflectionResolution: 128
  m_ReflectionBounces: 1
  m_ReflectionIntensity: 1
  m_CustomReflection: {fileID: 0}
  m_Sun: {fileID: 0}
  m_IndirectSpecularColor: {r: 0.44657898, g: 0.4964133, b: 0.5748178, a: 1}
  m_UseRadianceAmbientProbe: 0
--- !u!157 &3
LightmapSettings:
  m_ObjectHideFlags: 0
  serializedVersion: 12
  m_GIWorkflowMode: 1
  m_GISettings:
    serializedVersion: 2
    m_BounceScale: 1
    m_IndirectOutputScale: 1
    m_AlbedoBoost: 1
    m_EnvironmentLightingMode: 0
    m_EnableBakedLightmaps: 1
    m_EnableRealtimeLightmaps: 0
  m_LightmapEditorSettings:
    serializedVersion: 12
    m_Resolution: 2
    m_BakeResolution: 40
    m_AtlasSize: 1024
    m_AO: 0
    m_AOMaxDistance: 1
    m_CompAOExponent: 1
    m_CompAOExponentDirect: 0
    m_ExtractAmbientOcclusion: 0
    m_Padding: 2
    m_LightmapParameters: {fileID: 0}
    m_LightmapsBakeMode: 1
    m_TextureCompression: 1
    m_FinalGather: 0
    m_FinalGatherFiltering: 1
    m_FinalGatherRayCount: 256
    m_ReflectionCompression: 2
    m_MixedBakeMode: 2
    m_BakeBackend: 1
    m_PVRSampling: 1
    m_PVRDirectSampleCount: 32
    m_PVRSampleCount: 512
    m_PVRBounces: 2
    m_PVREnvironmentSampleCount: 256
    m_PVREnvironmentReferencePointCount: 2048
    m_PVRFilteringMode: 1
    m_PVRDenoiserTypeDirect: 1
    m_PVRDenoiserTypeIndirect: 1
    m_PVRDenoiserTypeAO: 1
    m_PVRFilterTypeDirect: 0
    m_PVRFilterTypeIndirect: 0
    m_PVRFilterTypeAO: 0
    m_PVREnvironmentMIS: 1
    m_PVRCulling: 1
    m_PVRFilteringGaussRadiusDirect: 1
    m_PVRFilteringGaussRadiusIndirect: 5
    m_PVRFilteringGaussRadiusAO: 2
    m_PVRFilteringAtrousPositionSigmaDirect: 0.5
    m_PVRFilteringAtrousPositionSigmaIndirect: 2
    m_PVRFilteringAtrousPositionSigmaAO: 1
    m_ExportTrainingData: 0
    m_TrainingDataDestination: TrainingData
    m_LightProbeSampleCountMultiplier: 4
  m_LightingDataAsset: {fileID: 0}
  m_LightingSettings: {fileID: 0}
--- !u!196 &4
NavMeshSettings:
  serializedVersion: 2
  m_ObjectHideFlags: 0
  m_BuildSettings:
    serializedVersion: 2
    agentTypeID: 0
    agentRadius: 0.5
    agentHeight: 2
    agentSlope: 45
    agentClimb: 0.4
    ledgeDropHeight: 0
    maxJumpAcrossDistance: 0
    minRegionArea: 2
    manualCellSize: 0
    cellSize: 0.16666667
    manualTileSize: 0
    tileSize: 256
    accuratePlacement: 0
    maxJobWorkers: 0
    preserveTilesOutsideBounds: 0
    debug:
      m_Flags: 0
  m_NavMeshData: {fileID: 0}
--- !u!1001 &60361119
PrefabInstance:
  m_ObjectHideFlags: 0
  serializedVersion: 2
  m_Modification:
    m_TransformParent: {fileID: 0}
    m_Modifications:
    - target: {fileID: 8105623372846688462, guid: d855e26754670e946ac6a2458fc35048, type: 3}
      propertyPath: m_Name
      value: Player
      objectReference: {fileID: 0}
    - target: {fileID: 8105623372846688467, guid: d855e26754670e946ac6a2458fc35048, type: 3}
      propertyPath: m_RootOrder
      value: 7
      objectReference: {fileID: 0}
    - target: {fileID: 8105623372846688467, guid: d855e26754670e946ac6a2458fc35048, type: 3}
      propertyPath: m_LocalPosition.x
      value: -0.7059686
      objectReference: {fileID: 0}
    - target: {fileID: 8105623372846688467, guid: d855e26754670e946ac6a2458fc35048, type: 3}
      propertyPath: m_LocalPosition.y
      value: 0.9065993
      objectReference: {fileID: 0}
    - target: {fileID: 8105623372846688467, guid: d855e26754670e946ac6a2458fc35048, type: 3}
      propertyPath: m_LocalPosition.z
      value: -2.4338522
      objectReference: {fileID: 0}
    - target: {fileID: 8105623372846688467, guid: d855e26754670e946ac6a2458fc35048, type: 3}
      propertyPath: m_LocalRotation.w
      value: 1
      objectReference: {fileID: 0}
    - target: {fileID: 8105623372846688467, guid: d855e26754670e946ac6a2458fc35048, type: 3}
      propertyPath: m_LocalRotation.x
      value: 0
      objectReference: {fileID: 0}
    - target: {fileID: 8105623372846688467, guid: d855e26754670e946ac6a2458fc35048, type: 3}
      propertyPath: m_LocalRotation.y
      value: 0
      objectReference: {fileID: 0}
    - target: {fileID: 8105623372846688467, guid: d855e26754670e946ac6a2458fc35048, type: 3}
      propertyPath: m_LocalRotation.z
      value: 0
      objectReference: {fileID: 0}
    - target: {fileID: 8105623372846688467, guid: d855e26754670e946ac6a2458fc35048, type: 3}
      propertyPath: m_LocalEulerAnglesHint.x
      value: 0
      objectReference: {fileID: 0}
    - target: {fileID: 8105623372846688467, guid: d855e26754670e946ac6a2458fc35048, type: 3}
      propertyPath: m_LocalEulerAnglesHint.y
      value: 0
      objectReference: {fileID: 0}
    - target: {fileID: 8105623372846688467, guid: d855e26754670e946ac6a2458fc35048, type: 3}
      propertyPath: m_LocalEulerAnglesHint.z
      value: 0
      objectReference: {fileID: 0}
    m_RemovedComponents: []
  m_SourcePrefab: {fileID: 100100000, guid: d855e26754670e946ac6a2458fc35048, type: 3}
--- !u!4 &60361120 stripped
Transform:
  m_CorrespondingSourceObject: {fileID: 8105623373656424982, guid: d855e26754670e946ac6a2458fc35048, type: 3}
  m_PrefabInstance: {fileID: 60361119}
  m_PrefabAsset: {fileID: 0}
--- !u!1 &676292095
GameObject:
  m_ObjectHideFlags: 0
  m_CorrespondingSourceObject: {fileID: 0}
  m_PrefabInstance: {fileID: 0}
  m_PrefabAsset: {fileID: 0}
  serializedVersion: 6
  m_Component:
  - component: {fileID: 676292099}
  - component: {fileID: 676292098}
  - component: {fileID: 676292097}
  - component: {fileID: 676292096}
  m_Layer: 0
  m_Name: Plane
  m_TagString: Untagged
  m_Icon: {fileID: 0}
  m_NavMeshLayer: 0
  m_StaticEditorFlags: 0
  m_IsActive: 1
--- !u!64 &676292096
MeshCollider:
  m_ObjectHideFlags: 0
  m_CorrespondingSourceObject: {fileID: 0}
  m_PrefabInstance: {fileID: 0}
  m_PrefabAsset: {fileID: 0}
  m_GameObject: {fileID: 676292095}
  m_Material: {fileID: 0}
  m_IsTrigger: 0
  m_Enabled: 1
  serializedVersion: 4
  m_Convex: 0
  m_CookingOptions: 30
  m_Mesh: {fileID: 10209, guid: 0000000000000000e000000000000000, type: 0}
--- !u!23 &676292097
MeshRenderer:
  m_ObjectHideFlags: 0
  m_CorrespondingSourceObject: {fileID: 0}
  m_PrefabInstance: {fileID: 0}
  m_PrefabAsset: {fileID: 0}
  m_GameObject: {fileID: 676292095}
  m_Enabled: 1
  m_CastShadows: 1
  m_ReceiveShadows: 1
  m_DynamicOccludee: 1
  m_MotionVectors: 1
  m_LightProbeUsage: 1
  m_ReflectionProbeUsage: 1
  m_RayTracingMode: 2
  m_RayTraceProcedural: 0
  m_RenderingLayerMask: 1
  m_RendererPriority: 0
  m_Materials:
  - {fileID: 2100000, guid: 57be1af92174fcd4f9516422f0290135, type: 2}
  m_StaticBatchInfo:
    firstSubMesh: 0
    subMeshCount: 0
  m_StaticBatchRoot: {fileID: 0}
  m_ProbeAnchor: {fileID: 0}
  m_LightProbeVolumeOverride: {fileID: 0}
  m_ScaleInLightmap: 1
  m_ReceiveGI: 1
  m_PreserveUVs: 0
  m_IgnoreNormalsForChartDetection: 0
  m_ImportantGI: 0
  m_StitchLightmapSeams: 1
  m_SelectedEditorRenderState: 3
  m_MinimumChartSize: 4
  m_AutoUVMaxDistance: 0.5
  m_AutoUVMaxAngle: 89
  m_LightmapParameters: {fileID: 0}
  m_SortingLayerID: 0
  m_SortingLayer: 0
  m_SortingOrder: 0
  m_AdditionalVertexStreams: {fileID: 0}
--- !u!33 &676292098
MeshFilter:
  m_ObjectHideFlags: 0
  m_CorrespondingSourceObject: {fileID: 0}
  m_PrefabInstance: {fileID: 0}
  m_PrefabAsset: {fileID: 0}
  m_GameObject: {fileID: 676292095}
  m_Mesh: {fileID: 10209, guid: 0000000000000000e000000000000000, type: 0}
--- !u!4 &676292099
Transform:
  m_ObjectHideFlags: 0
  m_CorrespondingSourceObject: {fileID: 0}
  m_PrefabInstance: {fileID: 0}
  m_PrefabAsset: {fileID: 0}
  m_GameObject: {fileID: 676292095}
  m_LocalRotation: {x: 0, y: 0, z: 0, w: 1}
  m_LocalPosition: {x: 0, y: 0, z: 0}
  m_LocalScale: {x: 10, y: 10, z: 10}
  m_Children: []
  m_Father: {fileID: 0}
  m_RootOrder: 4
  m_LocalEulerAnglesHint: {x: 0, y: 0, z: 0}
--- !u!1 &1171714719
GameObject:
  m_ObjectHideFlags: 0
  m_CorrespondingSourceObject: {fileID: 0}
  m_PrefabInstance: {fileID: 0}
  m_PrefabAsset: {fileID: 0}
  serializedVersion: 6
  m_Component:
  - component: {fileID: 1171714720}
  - component: {fileID: 1171714721}
  m_Layer: 0
  m_Name: CurveTarget
  m_TagString: Untagged
  m_Icon: {fileID: 6519382022992737161, guid: 0000000000000000d000000000000000, type: 0}
  m_NavMeshLayer: 0
  m_StaticEditorFlags: 0
  m_IsActive: 1
--- !u!4 &1171714720
Transform:
  m_ObjectHideFlags: 0
  m_CorrespondingSourceObject: {fileID: 0}
  m_PrefabInstance: {fileID: 0}
  m_PrefabAsset: {fileID: 0}
  m_GameObject: {fileID: 1171714719}
  m_LocalRotation: {x: 0, y: 0, z: 0, w: 1}
  m_LocalPosition: {x: 0.621, y: 1.4792827, z: 38.53}
  m_LocalScale: {x: 1, y: 1, z: 1}
  m_Children: []
  m_Father: {fileID: 0}
  m_RootOrder: 2
  m_LocalEulerAnglesHint: {x: 0, y: 0, z: 0}
--- !u!114 &1171714721
MonoBehaviour:
  m_ObjectHideFlags: 0
  m_CorrespondingSourceObject: {fileID: 0}
  m_PrefabInstance: {fileID: 0}
  m_PrefabAsset: {fileID: 0}
  m_GameObject: {fileID: 1171714719}
  m_Enabled: 1
  m_EditorHideFlags: 0
  m_Script: {fileID: 11500000, guid: d07acba3743077b45b722db590508798, type: 3}
  m_Name: 
  m_EditorClassIdentifier: 
  origin: {fileID: 1185649485}
  radius: 1
  swordOriginArcs:
  - startAngle: 0
    endAngle: 360
  hand: {fileID: 1563026085}
  sword: {fileID: 2000097583}
--- !u!4 &1185649485 stripped
Transform:
  m_CorrespondingSourceObject: {fileID: 1736141335737839733, guid: 32d0ba25c66de024b930d77b68d39970, type: 3}
  m_PrefabInstance: {fileID: 6764937511076062079}
  m_PrefabAsset: {fileID: 0}
--- !u!4 &1187897178 stripped
Transform:
  m_CorrespondingSourceObject: {fileID: 1187897178, guid: 32d0ba25c66de024b930d77b68d39970, type: 3}
  m_PrefabInstance: {fileID: 6764937511076062079}
  m_PrefabAsset: {fileID: 0}
--- !u!1001 &1248312628
PrefabInstance:
  m_ObjectHideFlags: 0
  serializedVersion: 2
  m_Modification:
    m_TransformParent: {fileID: 0}
    m_Modifications:
    - target: {fileID: 3482391021268413292, guid: 126d5903e3060ad458cb5d34e3e37327, type: 3}
      propertyPath: m_RootOrder
      value: 3
      objectReference: {fileID: 0}
    - target: {fileID: 3482391021268413292, guid: 126d5903e3060ad458cb5d34e3e37327, type: 3}
      propertyPath: m_LocalPosition.x
      value: 0.19351907
      objectReference: {fileID: 0}
    - target: {fileID: 3482391021268413292, guid: 126d5903e3060ad458cb5d34e3e37327, type: 3}
      propertyPath: m_LocalPosition.y
      value: 1.0711359
      objectReference: {fileID: 0}
    - target: {fileID: 3482391021268413292, guid: 126d5903e3060ad458cb5d34e3e37327, type: 3}
      propertyPath: m_LocalPosition.z
      value: -0.7694699
      objectReference: {fileID: 0}
    - target: {fileID: 3482391021268413292, guid: 126d5903e3060ad458cb5d34e3e37327, type: 3}
      propertyPath: m_LocalRotation.w
      value: 1
      objectReference: {fileID: 0}
    - target: {fileID: 3482391021268413292, guid: 126d5903e3060ad458cb5d34e3e37327, type: 3}
      propertyPath: m_LocalRotation.x
      value: 0
      objectReference: {fileID: 0}
    - target: {fileID: 3482391021268413292, guid: 126d5903e3060ad458cb5d34e3e37327, type: 3}
      propertyPath: m_LocalRotation.y
      value: 0
      objectReference: {fileID: 0}
    - target: {fileID: 3482391021268413292, guid: 126d5903e3060ad458cb5d34e3e37327, type: 3}
      propertyPath: m_LocalRotation.z
      value: 0
      objectReference: {fileID: 0}
    - target: {fileID: 3482391021268413292, guid: 126d5903e3060ad458cb5d34e3e37327, type: 3}
      propertyPath: m_LocalEulerAnglesHint.x
      value: 0
      objectReference: {fileID: 0}
    - target: {fileID: 3482391021268413292, guid: 126d5903e3060ad458cb5d34e3e37327, type: 3}
      propertyPath: m_LocalEulerAnglesHint.y
      value: 0
      objectReference: {fileID: 0}
    - target: {fileID: 3482391021268413292, guid: 126d5903e3060ad458cb5d34e3e37327, type: 3}
      propertyPath: m_LocalEulerAnglesHint.z
      value: 0
      objectReference: {fileID: 0}
    - target: {fileID: 3482391021268413296, guid: 126d5903e3060ad458cb5d34e3e37327, type: 3}
      propertyPath: m_Name
      value: Camera
      objectReference: {fileID: 0}
    - target: {fileID: 3482391021268413297, guid: 126d5903e3060ad458cb5d34e3e37327, type: 3}
      propertyPath: playerHead
      value: 
      objectReference: {fileID: 60361120}
    - target: {fileID: 3482391021268413297, guid: 126d5903e3060ad458cb5d34e3e37327, type: 3}
      propertyPath: enemyCenter
      value: 
      objectReference: {fileID: 1185649485}
    m_RemovedComponents: []
  m_SourcePrefab: {fileID: 100100000, guid: 126d5903e3060ad458cb5d34e3e37327, type: 3}
--- !u!1 &1445370037
GameObject:
  m_ObjectHideFlags: 0
  m_CorrespondingSourceObject: {fileID: 0}
  m_PrefabInstance: {fileID: 0}
  m_PrefabAsset: {fileID: 0}
  serializedVersion: 6
  m_Component:
  - component: {fileID: 1445370039}
  - component: {fileID: 1445370038}
  m_Layer: 0
  m_Name: TargetLeft
  m_TagString: Untagged
  m_Icon: {fileID: -5487077368411116049, guid: 0000000000000000d000000000000000, type: 0}
  m_NavMeshLayer: 0
  m_StaticEditorFlags: 0
  m_IsActive: 1
--- !u!114 &1445370038
MonoBehaviour:
  m_ObjectHideFlags: 0
  m_CorrespondingSourceObject: {fileID: 0}
  m_PrefabInstance: {fileID: 0}
  m_PrefabAsset: {fileID: 0}
  m_GameObject: {fileID: 1445370037}
  m_Enabled: 1
  m_EditorHideFlags: 0
  m_Script: {fileID: 11500000, guid: d9c43181b54a5fc4eb04ad5abe2cbb05, type: 3}
  m_Name: 
  m_EditorClassIdentifier: 
  homeTransform: {fileID: 1187897178}
  wantStepAtDistance: 0.4
  stepOvershootFraction: 0.9
  stepHeightFraction: 1.5
  stepDuration: 0.3
--- !u!4 &1445370039
Transform:
  m_ObjectHideFlags: 0
  m_CorrespondingSourceObject: {fileID: 0}
  m_PrefabInstance: {fileID: 0}
  m_PrefabAsset: {fileID: 0}
  m_GameObject: {fileID: 1445370037}
  m_LocalRotation: {x: -0, y: -0, z: 1.0226801e-30, w: 1}
  m_LocalPosition: {x: 0.3562001, y: 0.059, z: 0.336}
  m_LocalScale: {x: 1, y: 1, z: 1}
  m_Children: []
  m_Father: {fileID: 0}
  m_RootOrder: 5
  m_LocalEulerAnglesHint: {x: 0, y: 0, z: 0}
--- !u!4 &1563026085 stripped
Transform:
  m_CorrespondingSourceObject: {fileID: 8738866042155597562, guid: 32d0ba25c66de024b930d77b68d39970, type: 3}
  m_PrefabInstance: {fileID: 6764937511076062079}
  m_PrefabAsset: {fileID: 0}
--- !u!1 &1767339068
GameObject:
  m_ObjectHideFlags: 0
  m_CorrespondingSourceObject: {fileID: 0}
  m_PrefabInstance: {fileID: 0}
  m_PrefabAsset: {fileID: 0}
  serializedVersion: 6
  m_Component:
  - component: {fileID: 1767339070}
  - component: {fileID: 1767339069}
  m_Layer: 0
  m_Name: TargetRight
  m_TagString: Untagged
  m_Icon: {fileID: -5487077368411116049, guid: 0000000000000000d000000000000000, type: 0}
  m_NavMeshLayer: 0
  m_StaticEditorFlags: 0
  m_IsActive: 1
--- !u!114 &1767339069
MonoBehaviour:
  m_ObjectHideFlags: 0
  m_CorrespondingSourceObject: {fileID: 0}
  m_PrefabInstance: {fileID: 0}
  m_PrefabAsset: {fileID: 0}
  m_GameObject: {fileID: 1767339068}
  m_Enabled: 1
  m_EditorHideFlags: 0
  m_Script: {fileID: 11500000, guid: d9c43181b54a5fc4eb04ad5abe2cbb05, type: 3}
  m_Name: 
  m_EditorClassIdentifier: 
  homeTransform: {fileID: 1897804375}
  wantStepAtDistance: 0.4
  stepOvershootFraction: 0.9
  stepHeightFraction: 1.5
  stepDuration: 0.3
--- !u!4 &1767339070
Transform:
  m_ObjectHideFlags: 0
  m_CorrespondingSourceObject: {fileID: 0}
  m_PrefabInstance: {fileID: 0}
  m_PrefabAsset: {fileID: 0}
  m_GameObject: {fileID: 1767339068}
  m_LocalRotation: {x: -0, y: -0, z: 1.0226801e-30, w: 1}
  m_LocalPosition: {x: 0.594, y: 0.066, z: -0.374}
  m_LocalScale: {x: 1, y: 1, z: 1}
  m_Children: []
  m_Father: {fileID: 0}
  m_RootOrder: 6
  m_LocalEulerAnglesHint: {x: 0, y: 0, z: 0}
--- !u!1 &1786761498
GameObject:
  m_ObjectHideFlags: 0
  m_CorrespondingSourceObject: {fileID: 0}
  m_PrefabInstance: {fileID: 0}
  m_PrefabAsset: {fileID: 0}
  serializedVersion: 6
  m_Component:
  - component: {fileID: 1786761500}
  - component: {fileID: 1786761499}
  m_Layer: 0
  m_Name: Directional Light
  m_TagString: Untagged
  m_Icon: {fileID: 0}
  m_NavMeshLayer: 0
  m_StaticEditorFlags: 0
  m_IsActive: 1
--- !u!108 &1786761499
Light:
  m_ObjectHideFlags: 0
  m_CorrespondingSourceObject: {fileID: 0}
  m_PrefabInstance: {fileID: 0}
  m_PrefabAsset: {fileID: 0}
  m_GameObject: {fileID: 1786761498}
  m_Enabled: 1
  serializedVersion: 10
  m_Type: 1
  m_Shape: 0
  m_Color: {r: 1, g: 0.95686275, b: 0.8392157, a: 1}
  m_Intensity: 1
  m_Range: 10
  m_SpotAngle: 30
  m_InnerSpotAngle: 21.80208
  m_CookieSize: 10
  m_Shadows:
    m_Type: 2
    m_Resolution: -1
    m_CustomResolution: -1
    m_Strength: 1
    m_Bias: 0.05
    m_NormalBias: 0.4
    m_NearPlane: 0.2
    m_CullingMatrixOverride:
      e00: 1
      e01: 0
      e02: 0
      e03: 0
      e10: 0
      e11: 1
      e12: 0
      e13: 0
      e20: 0
      e21: 0
      e22: 1
      e23: 0
      e30: 0
      e31: 0
      e32: 0
      e33: 1
    m_UseCullingMatrixOverride: 0
  m_Cookie: {fileID: 0}
  m_DrawHalo: 0
  m_Flare: {fileID: 0}
  m_RenderMode: 0
  m_CullingMask:
    serializedVersion: 2
    m_Bits: 4294967295
  m_RenderingLayerMask: 1
  m_Lightmapping: 4
  m_LightShadowCasterMode: 0
  m_AreaSize: {x: 1, y: 1}
  m_BounceIntensity: 1
  m_ColorTemperature: 6570
  m_UseColorTemperature: 0
  m_BoundingSphereOverride: {x: 0, y: 0, z: 0, w: 0}
  m_UseBoundingSphereOverride: 0
  m_UseViewFrustumForShadowCasterCull: 1
  m_ShadowRadius: 0
  m_ShadowAngle: 0
--- !u!4 &1786761500
Transform:
  m_ObjectHideFlags: 0
  m_CorrespondingSourceObject: {fileID: 0}
  m_PrefabInstance: {fileID: 0}
  m_PrefabAsset: {fileID: 0}
  m_GameObject: {fileID: 1786761498}
  m_LocalRotation: {x: 0.40821788, y: -0.23456968, z: 0.10938163, w: 0.8754261}
  m_LocalPosition: {x: 0, y: 3, z: 0}
  m_LocalScale: {x: 1, y: 1, z: 1}
  m_Children: []
  m_Father: {fileID: 0}
  m_RootOrder: 0
  m_LocalEulerAnglesHint: {x: 50, y: -30, z: 0}
--- !u!4 &1897804375 stripped
Transform:
  m_CorrespondingSourceObject: {fileID: 1897804375, guid: 32d0ba25c66de024b930d77b68d39970, type: 3}
  m_PrefabInstance: {fileID: 6764937511076062079}
  m_PrefabAsset: {fileID: 0}
--- !u!4 &2000097583 stripped
Transform:
  m_CorrespondingSourceObject: {fileID: 1766164595780409553, guid: 32d0ba25c66de024b930d77b68d39970, type: 3}
  m_PrefabInstance: {fileID: 6764937511076062079}
  m_PrefabAsset: {fileID: 0}
--- !u!1001 &6764937511076062079
PrefabInstance:
  m_ObjectHideFlags: 0
  serializedVersion: 2
  m_Modification:
    m_TransformParent: {fileID: 0}
    m_Modifications:
    - target: {fileID: 132510249, guid: 32d0ba25c66de024b930d77b68d39970, type: 3}
      propertyPath: Target
      value: 
      objectReference: {fileID: 1767339070}
    - target: {fileID: 132510250, guid: 32d0ba25c66de024b930d77b68d39970, type: 3}
      propertyPath: Target
      value: 
      objectReference: {fileID: 1445370039}
    - target: {fileID: 654309719, guid: 32d0ba25c66de024b930d77b68d39970, type: 3}
      propertyPath: curveTarget
      value: 
      objectReference: {fileID: 1171714721}
    - target: {fileID: 1213016745, guid: 32d0ba25c66de024b930d77b68d39970, type: 3}
      propertyPath: target
      value: 
      objectReference: {fileID: 60361120}
    - target: {fileID: 1563026086, guid: 32d0ba25c66de024b930d77b68d39970, type: 3}
      propertyPath: Target
      value: 
      objectReference: {fileID: 1171714720}
    - target: {fileID: 2009072281, guid: 32d0ba25c66de024b930d77b68d39970, type: 3}
      propertyPath: look
      value: 
      objectReference: {fileID: 1171714720}
    - target: {fileID: 1381253068709866950, guid: 32d0ba25c66de024b930d77b68d39970, type: 3}
      propertyPath: m_Name
      value: FullProc
      objectReference: {fileID: 0}
    - target: {fileID: 1756653399051270012, guid: 32d0ba25c66de024b930d77b68d39970, type: 3}
      propertyPath: m_RootOrder
      value: 1
      objectReference: {fileID: 0}
    - target: {fileID: 1756653399051270012, guid: 32d0ba25c66de024b930d77b68d39970, type: 3}
      propertyPath: m_LocalPosition.x
      value: 0.469
      objectReference: {fileID: 0}
    - target: {fileID: 1756653399051270012, guid: 32d0ba25c66de024b930d77b68d39970, type: 3}
      propertyPath: m_LocalPosition.y
      value: -0.113
      objectReference: {fileID: 0}
    - target: {fileID: 1756653399051270012, guid: 32d0ba25c66de024b930d77b68d39970, type: 3}
      propertyPath: m_LocalPosition.z
      value: 0
      objectReference: {fileID: 0}
    - target: {fileID: 1756653399051270012, guid: 32d0ba25c66de024b930d77b68d39970, type: 3}
      propertyPath: m_LocalRotation.w
      value: 1
      objectReference: {fileID: 0}
    - target: {fileID: 1756653399051270012, guid: 32d0ba25c66de024b930d77b68d39970, type: 3}
      propertyPath: m_LocalRotation.x
      value: 0
      objectReference: {fileID: 0}
    - target: {fileID: 1756653399051270012, guid: 32d0ba25c66de024b930d77b68d39970, type: 3}
      propertyPath: m_LocalRotation.y
      value: 0
      objectReference: {fileID: 0}
    - target: {fileID: 1756653399051270012, guid: 32d0ba25c66de024b930d77b68d39970, type: 3}
      propertyPath: m_LocalRotation.z
      value: 0
      objectReference: {fileID: 0}
    - target: {fileID: 1756653399051270012, guid: 32d0ba25c66de024b930d77b68d39970, type: 3}
      propertyPath: m_LocalEulerAnglesHint.x
      value: 0
      objectReference: {fileID: 0}
    - target: {fileID: 1756653399051270012, guid: 32d0ba25c66de024b930d77b68d39970, type: 3}
      propertyPath: m_LocalEulerAnglesHint.y
      value: 0
      objectReference: {fileID: 0}
    - target: {fileID: 1756653399051270012, guid: 32d0ba25c66de024b930d77b68d39970, type: 3}
      propertyPath: m_LocalEulerAnglesHint.z
      value: 0
      objectReference: {fileID: 0}
    - target: {fileID: 2236746693727076194, guid: 32d0ba25c66de024b930d77b68d39970, type: 3}
      propertyPath: m_LocalPosition.x
      value: 0.097
      objectReference: {fileID: 0}
    - target: {fileID: 2236746693727076194, guid: 32d0ba25c66de024b930d77b68d39970, type: 3}
      propertyPath: m_LocalPosition.y
      value: -0.168
      objectReference: {fileID: 0}
    - target: {fileID: 2236746693727076194, guid: 32d0ba25c66de024b930d77b68d39970, type: 3}
      propertyPath: m_LocalPosition.z
      value: -0.016
      objectReference: {fileID: 0}
    - target: {fileID: 3237480025376513986, guid: 32d0ba25c66de024b930d77b68d39970, type: 3}
      propertyPath: m_LocalPosition.x
      value: -0.097
      objectReference: {fileID: 0}
    - target: {fileID: 3237480025376513986, guid: 32d0ba25c66de024b930d77b68d39970, type: 3}
      propertyPath: m_LocalPosition.y
      value: -0.168
      objectReference: {fileID: 0}
    - target: {fileID: 3237480025376513986, guid: 32d0ba25c66de024b930d77b68d39970, type: 3}
      propertyPath: m_LocalPosition.z
      value: -0.016
      objectReference: {fileID: 0}
    - target: {fileID: 7336364064996643782, guid: 32d0ba25c66de024b930d77b68d39970, type: 3}
      propertyPath: m_LocalPosition.x
      value: 0
      objectReference: {fileID: 0}
    - target: {fileID: 7336364064996643782, guid: 32d0ba25c66de024b930d77b68d39970, type: 3}
      propertyPath: m_LocalPosition.y
      value: -0.059
      objectReference: {fileID: 0}
    - target: {fileID: 7336364064996643782, guid: 32d0ba25c66de024b930d77b68d39970, type: 3}
      propertyPath: m_LocalPosition.z
      value: 0.003
      objectReference: {fileID: 0}
    m_RemovedComponents: []
  m_SourcePrefab: {fileID: 100100000, guid: 32d0ba25c66de024b930d77b68d39970, type: 3}
